[
  {
    "id": 1,
    "title": "title0",
    "price": 0,
    "address": "address0",
    "status": true,
    "phone": "0509331890",
    "createdDate": {
      "month": "Ноября",
      "year": 2017,
      "dayOfMonth": 27,
      "dayOfWeek": "Понедельник",
      "dayOfYear": 331,
      "hour": 2,
      "minute": 53,
      "nano": 0,
      "second": 23,
      "monthValue": 11,
      "chronology": {
        "id": "ISO",
        "calendarType": "iso8601"
      }
    },
    "photo": "photo0",
    "description": "des0",
    "views": 0,
    "category": {
      "id": 1,
      "title": "названиеКатегории0",
      "value": "categoryValue0"
    },
    "user": {
      "id": 1,
      "firstName": "name0",
      "secondName": "secondName0",
      "email": "email0",
      "password": "pass",
      "status": true,
      "role": {
        "id": 1,
        "title": "USER"
      }
    },
    "features": []
  },
  {
    "id": 2,
    "title": "title1",
    "price": 0,
    "address": "address0",
    "status": true,
    "phone": "0509331890",
    "createdDate": {
      "month": "Ноябрь",
      "year": 2017,
      "dayOfMonth": 28,
      "dayOfWeek": "Вторник",
      "dayOfYear": 332,
      "hour": 2,
      "minute": 53,
      "nano": 0,
      "second": 23,
      "monthValue": 11,
      "chronology": {
        "id": "ISO",
        "calendarType": "iso8601"
      }
    },
    "photo": "photo0",
    "description": "des0",
    "views": 0,
    "category": {
      "id": 1,
      "title": "названиеКатегории0",
      "value": "categoryValue0"
    },
    "user": {
      "id": 1,
      "firstName": "name0",
      "secondName": "secondName0",
      "email": "email0",
      "password": "pass",
      "status": true,
      "role": {
        "id": 1,
        "title": "USER"
      }
    },
    "features": []
  }
]
